{
  "count": 112,
  "pageIndex": 1,
  "pageSize": 100,
  "pageCount": 2,
  "items": [
    {
      "$ref": "http://sports.core.api.espn.com/v2/sports/soccer/leagues/fifa.world/seasons/2026/teams/164?lang=en&region=us"
    },
    {
      "$ref": "http://sports.core.api.espn.com/v2/sports/soccer/leagues/fifa.world/seasons/2026/teams/202?lang=en&region=us"
    },
    {
      "$ref": "http://sports.core.api.espn.com/v2/sports/soccer/leagues/fifa.world/seasons/2026/teams/203?lang=en&region=us"
    },
    {
      "$ref": "http://sports.core.api.espn.com/v2/sports/soccer/leagues/fifa.world/seasons/2026/teams/205?lang=en&region=us"
    },
    {
      "$ref": "http://sports.core.api.espn.com/v2/sports/soccer/leagues/fifa.world/seasons/2026/teams/206?lang=en&region=us"
    },
    {
      "$ref": "http://sports.core.api.espn.com/v2/sports/soccer/leagues/fifa.world/seasons/2026/teams/208?lang=en&region=us"
    },
    {
      "$ref": "http://sports.core.api.espn.com/v2/sports/soccer/leagues/fifa.world/seasons/2026/teams/209?lang=en&region=us"
    },
    {
      "$ref": "http://sports.core.api.espn.com/v2/sports/soccer/leagues/fifa.world/seasons/2026/teams/210?lang=en&region=us"
    },
    {
      "$ref": "http://sports.core.api.espn.com/v2/sports/soccer/leagues/fifa.world/seasons/2026/teams/212?lang=en&region=us"
    },
    {
      "$ref": "http://sports.core.api.espn.com/v2/sports/soccer/leagues/fifa.world/seasons/2026/teams/448?lang=en&region=us"
    },
    {
      "$ref": "http://sports.core.api.espn.com/v2/sports/soccer/leagues/fifa.world/seasons/2026/teams/449?lang=en&region=us"
    },
    {
      "$ref": "http://sports.core.api.espn.com/v2/sports/soccer/leagues/fifa.world/seasons/2026/teams/450?lang=en&region=us"
    },
    {
      "$ref": "http://sports.core.api.espn.com/v2/sports/soccer/leagues/fifa.world/seasons/2026/teams/451?lang=en&region=us"
    },
    {
      "$ref": "http://sports.core.api.espn.com/v2/sports/soccer/leagues/fifa.world/seasons/2026/teams/452?lang=en&region=us"
    },
    {
      "$ref": "http://sports.core.api.espn.com/v2/sports/soccer/leagues/fifa.world/seasons/2026/teams/459?lang=en&region=us"
    },
    {
      "$ref": "http://sports.core.api.espn.com/v2/sports/soccer/leagues/fifa.world/seasons/2026/teams/464?lang=en&region=us"
    },
    {
      "$ref": "http://sports.core.api.espn.com/v2/sports/soccer/leagues/fifa.world/seasons/2026/teams/465?lang=en&region=us"
    },
    {
      "$ref": "http://sports.core.api.espn.com/v2/sports/soccer/leagues/fifa.world/seasons/2026/teams/466?lang=en&region=us"
    },
    {
      "$ref": "http://sports.core.api.espn.com/v2/sports/soccer/leagues/fifa.world/seasons/2026/teams/467?lang=en&region=us"
    },
    {
      "$ref": "http://sports.core.api.espn.com/v2/sports/soccer/leagues/fifa.world/seasons/2026/teams/469?lang=en&region=us"
    },
    {
      "$ref": "http://sports.core.api.espn.com/v2/sports/soccer/leagues/fifa.world/seasons/2026/teams/474?lang=en&region=us"
    },
    {
      "$ref": "http://sports.core.api.espn.com/v2/sports/soccer/leagues/fifa.world/seasons/2026/teams/475?lang=en&region=us"
    },
    {
      "$ref": "http://sports.core.api.espn.com/v2/sports/soccer/leagues/fifa.world/seasons/2026/teams/477?lang=en&region=us"
    },
    {
      "$ref": "http://sports.core.api.espn.com/v2/sports/soccer/leagues/fifa.world/seasons/2026/teams/478?lang=en&region=us"
    },
    {
      "$ref": "http://sports.core.api.espn.com/v2/sports/soccer/leagues/fifa.world/seasons/2026/teams/481?lang=en&region=us"
    },
    {
      "$ref": "http://sports.core.api.espn.com/v2/sports/soccer/leagues/fifa.world/seasons/2026/teams/482?lang=en&region=us"
    },
    {
      "$ref": "http://sports.core.api.espn.com/v2/sports/soccer/leagues/fifa.world/seasons/2026/teams/580?lang=en&region=us"
    },
    {
      "$ref": "http://sports.core.api.espn.com/v2/sports/soccer/leagues/fifa.world/seasons/2026/teams/624?lang=en&region=us"
    },
    {
      "$ref": "http://sports.core.api.espn.com/v2/sports/soccer/leagues/fifa.world/seasons/2026/teams/627?lang=en&region=us"
    },
    {
      "$ref": "http://sports.core.api.espn.com/v2/sports/soccer/leagues/fifa.world/seasons/2026/teams/628?lang=en&region=us"
    },
    {
      "$ref": "http://sports.core.api.espn.com/v2/sports/soccer/leagues/fifa.world/seasons/2026/teams/654?lang=en&region=us"
    },
    {
      "$ref": "http://sports.core.api.espn.com/v2/sports/soccer/leagues/fifa.world/seasons/2026/teams/655?lang=en&region=us"
    },
    {
      "$ref": "http://sports.core.api.espn.com/v2/sports/soccer/leagues/fifa.world/seasons/2026/teams/659?lang=en&region=us"
    },
    {
      "$ref": "http://sports.core.api.espn.com/v2/sports/soccer/leagues/fifa.world/seasons/2026/teams/660?lang=en&region=us"
    },
    {
      "$ref": "http://sports.core.api.espn.com/v2/sports/soccer/leagues/fifa.world/seasons/2026/teams/2570?lang=en&region=us"
    },
    {
      "$ref": "http://sports.core.api.espn.com/v2/sports/soccer/leagues/fifa.world/seasons/2026/teams/2597?lang=en&region=us"
    },
    {
      "$ref": "http://sports.core.api.espn.com/v2/sports/soccer/leagues/fifa.world/seasons/2026/teams/2620?lang=en&region=us"
    },
    {
      "$ref": "http://sports.core.api.espn.com/v2/sports/soccer/leagues/fifa.world/seasons/2026/teams/2654?lang=en&region=us"
    },
    {
      "$ref": "http://sports.core.api.espn.com/v2/sports/soccer/leagues/fifa.world/seasons/2026/teams/2659?lang=en&region=us"
    },
    {
      "$ref": "http://sports.core.api.espn.com/v2/sports/soccer/leagues/fifa.world/seasons/2026/teams/2666?lang=en&region=us"
    },
    {
      "$ref": "http://sports.core.api.espn.com/v2/sports/soccer/leagues/fifa.world/seasons/2026/teams/2850?lang=en&region=us"
    },
    {
      "$ref": "http://sports.core.api.espn.com/v2/sports/soccer/leagues/fifa.world/seasons/2026/teams/2869?lang=en&region=us"
    },
    {
      "$ref": "http://sports.core.api.espn.com/v2/sports/soccer/leagues/fifa.world/seasons/2026/teams/2917?lang=en&region=us"
    },
    {
      "$ref": "http://sports.core.api.espn.com/v2/sports/soccer/leagues/fifa.world/seasons/2026/teams/4375?lang=en&region=us"
    },
    {
      "$ref": "http://sports.core.api.espn.com/v2/sports/soccer/leagues/fifa.world/seasons/2026/teams/4398?lang=en&region=us"
    },
    {
      "$ref": "http://sports.core.api.espn.com/v2/sports/soccer/leagues/fifa.world/seasons/2026/teams/4469?lang=en&region=us"
    },
    {
      "$ref": "http://sports.core.api.espn.com/v2/sports/soccer/leagues/fifa.world/seasons/2026/teams/4789?lang=en&region=us"
    },
    {
      "$ref": "http://sports.core.api.espn.com/v2/sports/soccer/leagues/fifa.world/seasons/2026/teams/5923?lang=en&region=us"
    },
    {
      "$ref": "http://sports.core.api.espn.com/v2/sports/soccer/leagues/fifa.world/seasons/2026/teams/5924?lang=en&region=us"
    },
    {
      "$ref": "http://sports.core.api.espn.com/v2/sports/soccer/leagues/fifa.world/seasons/2026/teams/5925?lang=en&region=us"
    },
    {
      "$ref": "http://sports.core.api.espn.com/v2/sports/soccer/leagues/fifa.world/seasons/2026/teams/5926?lang=en&region=us"
    },
    {
      "$ref": "http://sports.core.api.espn.com/v2/sports/soccer/leagues/fifa.world/seasons/2026/teams/5927?lang=en&region=us"
    },
    {
      "$ref": "http://sports.core.api.espn.com/v2/sports/soccer/leagues/fifa.world/seasons/2026/teams/5928?lang=en&region=us"
    },
    {
      "$ref": "http://sports.core.api.espn.com/v2/sports/soccer/leagues/fifa.world/seasons/2026/teams/5929?lang=en&region=us"
    },
    {
      "$ref": "http://sports.core.api.espn.com/v2/sports/soccer/leagues/fifa.world/seasons/2026/teams/5930?lang=en&region=us"
    },
    {
      "$ref": "http://sports.core.api.espn.com/v2/sports/soccer/leagues/fifa.world/seasons/2026/teams/5931?lang=en&region=us"
    },
    {
      "$ref": "http://sports.core.api.espn.com/v2/sports/soccer/leagues/fifa.world/seasons/2026/teams/5932?lang=en&region=us"
    },
    {
      "$ref": "http://sports.core.api.espn.com/v2/sports/soccer/leagues/fifa.world/seasons/2026/teams/5933?lang=en&region=us"
    },
    {
      "$ref": "http://sports.core.api.espn.com/v2/sports/soccer/leagues/fifa.world/seasons/2026/teams/5934?lang=en&region=us"
    },
    {
      "$ref": "http://sports.core.api.espn.com/v2/sports/soccer/leagues/fifa.world/seasons/2026/teams/5935?lang=en&region=us"
    },
    {
      "$ref": "http://sports.core.api.espn.com/v2/sports/soccer/leagues/fifa.world/seasons/2026/teams/5936?lang=en&region=us"
    },
    {
      "$ref": "http://sports.core.api.espn.com/v2/sports/soccer/leagues/fifa.world/seasons/2026/teams/5937?lang=en&region=us"
    },
    {
      "$ref": "http://sports.core.api.espn.com/v2/sports/soccer/leagues/fifa.world/seasons/2026/teams/5938?lang=en&region=us"
    },
    {
      "$ref": "http://sports.core.api.espn.com/v2/sports/soccer/leagues/fifa.world/seasons/2026/teams/5958?lang=en&region=us"
    },
    {
      "$ref": "http://sports.core.api.espn.com/v2/sports/soccer/leagues/fifa.world/seasons/2026/teams/5959?lang=en&region=us"
    },
    {
      "$ref": "http://sports.core.api.espn.com/v2/sports/soccer/leagues/fifa.world/seasons/2026/teams/5960?lang=en&region=us"
    },
    {
      "$ref": "http://sports.core.api.espn.com/v2/sports/soccer/leagues/fifa.world/seasons/2026/teams/5961?lang=en&region=us"
    },
    {
      "$ref": "http://sports.core.api.espn.com/v2/sports/soccer/leagues/fifa.world/seasons/2026/teams/11678?lang=en&region=us"
    },
    {
      "$ref": "http://sports.core.api.espn.com/v2/sports/soccer/leagues/fifa.world/seasons/2026/teams/17629?lang=en&region=us"
    },
    {
      "$ref": "http://sports.core.api.espn.com/v2/sports/soccer/leagues/fifa.world/seasons/2026/teams/17630?lang=en&region=us"
    },
    {
      "$ref": "http://sports.core.api.espn.com/v2/sports/soccer/leagues/fifa.world/seasons/2026/teams/17631?lang=en&region=us"
    },
    {
      "$ref": "http://sports.core.api.espn.com/v2/sports/soccer/leagues/fifa.world/seasons/2026/teams/17632?lang=en&region=us"
    },
    {
      "$ref": "http://sports.core.api.espn.com/v2/sports/soccer/leagues/fifa.world/seasons/2026/teams/19278?lang=en&region=us"
    },
    {
      "$ref": "http://sports.core.api.espn.com/v2/sports/soccer/leagues/fifa.world/seasons/2026/teams/19279?lang=en&region=us"
    },
    {
      "$ref": "http://sports.core.api.espn.com/v2/sports/soccer/leagues/fifa.world/seasons/2026/teams/19280?lang=en&region=us"
    },
    {
      "$ref": "http://sports.core.api.espn.com/v2/sports/soccer/leagues/fifa.world/seasons/2026/teams/19281?lang=en&region=us"
    },
    {
      "$ref": "http://sports.core.api.espn.com/v2/sports/soccer/leagues/fifa.world/seasons/2026/teams/19282?lang=en&region=us"
    },
    {
      "$ref": "http://sports.core.api.espn.com/v2/sports/soccer/leagues/fifa.world/seasons/2026/teams/19283?lang=en&region=us"
    },
    {
      "$ref": "http://sports.core.api.espn.com/v2/sports/soccer/leagues/fifa.world/seasons/2026/teams/19284?lang=en&region=us"
    },
    {
      "$ref": "http://sports.core.api.espn.com/v2/sports/soccer/leagues/fifa.world/seasons/2026/teams/19285?lang=en&region=us"
    },
    {
      "$ref": "http://sports.core.api.espn.com/v2/sports/soccer/leagues/fifa.world/seasons/2026/teams/131501?lang=en&region=us"
    },
    {
      "$ref": "http://sports.core.api.espn.com/v2/sports/soccer/leagues/fifa.world/seasons/2026/teams/131502?lang=en&region=us"
    },
    {
      "$ref": "http://sports.core.api.espn.com/v2/sports/soccer/leagues/fifa.world/seasons/2026/teams/131503?lang=en&region=us"
    },
    {
      "$ref": "http://sports.core.api.espn.com/v2/sports/soccer/leagues/fifa.world/seasons/2026/teams/131504?lang=en&region=us"
    },
    {
      "$ref": "http://sports.core.api.espn.com/v2/sports/soccer/leagues/fifa.world/seasons/2026/teams/131505?lang=en&region=us"
    },
    {
      "$ref": "http://sports.core.api.espn.com/v2/sports/soccer/leagues/fifa.world/seasons/2026/teams/131506?lang=en&region=us"
    },
    {
      "$ref": "http://sports.core.api.espn.com/v2/sports/soccer/leagues/fifa.world/seasons/2026/teams/131507?lang=en&region=us"
    },
    {
      "$ref": "http://sports.core.api.espn.com/v2/sports/soccer/leagues/fifa.world/seasons/2026/teams/131508?lang=en&region=us"
    },
    {
      "$ref": "http://sports.core.api.espn.com/v2/sports/soccer/leagues/fifa.world/seasons/2026/teams/131525?lang=en&region=us"
    },
    {
      "$ref": "http://sports.core.api.espn.com/v2/sports/soccer/leagues/fifa.world/seasons/2026/teams/131526?lang=en&region=us"
    },
    {
      "$ref": "http://sports.core.api.espn.com/v2/sports/soccer/leagues/fifa.world/seasons/2026/teams/131527?lang=en&region=us"
    },
    {
      "$ref": "http://sports.core.api.espn.com/v2/sports/soccer/leagues/fifa.world/seasons/2026/teams/131528?lang=en&region=us"
    },
    {
      "$ref": "http://sports.core.api.espn.com/v2/sports/soccer/leagues/fifa.world/seasons/2026/teams/131529?lang=en&region=us"
    },
    {
      "$ref": "http://sports.core.api.espn.com/v2/sports/soccer/leagues/fifa.world/seasons/2026/teams/131530?lang=en&region=us"
    },
    {
      "$ref": "http://sports.core.api.espn.com/v2/sports/soccer/leagues/fifa.world/seasons/2026/teams/131531?lang=en&region=us"
    },
    {
      "$ref": "http://sports.core.api.espn.com/v2/sports/soccer/leagues/fifa.world/seasons/2026/teams/131532?lang=en&region=us"
    },
    {
      "$ref": "http://sports.core.api.espn.com/v2/sports/soccer/leagues/fifa.world/seasons/2026/teams/131533?lang=en&region=us"
    },
    {
      "$ref": "http://sports.core.api.espn.com/v2/sports/soccer/leagues/fifa.world/seasons/2026/teams/131534?lang=en&region=us"
    },
    {
      "$ref": "http://sports.core.api.espn.com/v2/sports/soccer/leagues/fifa.world/seasons/2026/teams/131535?lang=en&region=us"
    },
    {
      "$ref": "http://sports.core.api.espn.com/v2/sports/soccer/leagues/fifa.world/seasons/2026/teams/131536?lang=en&region=us"
    }
  ]
}