{
  "count": 26,
  "pageIndex": 1,
  "pageSize": 25,
  "pageCount": 2,
  "items": [
    {
      "$ref": "http://sports.core.api.espn.com/v2/sports/soccer/leagues/fifa.world/seasons/2026/athletes/196176?lang=en&region=us"
    },
    {
      "$ref": "http://sports.core.api.espn.com/v2/sports/soccer/leagues/fifa.world/seasons/2026/athletes/222375?lang=en&region=us"
    },
    {
      "$ref": "http://sports.core.api.espn.com/v2/sports/soccer/leagues/fifa.world/seasons/2026/athletes/297362?lang=en&region=us"
    },
    {
      "$ref": "http://sports.core.api.espn.com/v2/sports/soccer/leagues/fifa.world/seasons/2026/athletes/128714?lang=en&region=us"
    },
    {
      "$ref": "http://sports.core.api.espn.com/v2/sports/soccer/leagues/fifa.world/seasons/2026/athletes/159317?lang=en&region=us"
    },
    {
      "$ref": "http://sports.core.api.espn.com/v2/sports/soccer/leagues/fifa.world/seasons/2026/athletes/166396?lang=en&region=us"
    },
    {
      "$ref": "http://sports.core.api.espn.com/v2/sports/soccer/leagues/fifa.world/seasons/2026/athletes/259910?lang=en&region=us"
    },
    {
      "$ref": "http://sports.core.api.espn.com/v2/sports/soccer/leagues/fifa.world/seasons/2026/athletes/268533?lang=en&region=us"
    },
    {
      "$ref": "http://sports.core.api.espn.com/v2/sports/soccer/leagues/fifa.world/seasons/2026/athletes/332613?lang=en&region=us"
    },
    {
      "$ref": "http://sports.core.api.espn.com/v2/sports/soccer/leagues/fifa.world/seasons/2026/athletes/368992?lang=en&region=us"
    },
    {
      "$ref": "http://sports.core.api.espn.com/v2/sports/soccer/leagues/fifa.world/seasons/2026/athletes/206474?lang=en&region=us"
    },
    {
      "$ref": "http://sports.core.api.espn.com/v2/sports/soccer/leagues/fifa.world/seasons/2026/athletes/209581?lang=en&region=us"
    },
    {
      "$ref": "http://sports.core.api.espn.com/v2/sports/soccer/leagues/fifa.world/seasons/2026/athletes/214596?lang=en&region=us"
    },
    {
      "$ref": "http://sports.core.api.espn.com/v2/sports/soccer/leagues/fifa.world/seasons/2026/athletes/227765?lang=en&region=us"
    },
    {
      "$ref": "http://sports.core.api.espn.com/v2/sports/soccer/leagues/fifa.world/seasons/2026/athletes/231828?lang=en&region=us"
    },
    {
      "$ref": "http://sports.core.api.espn.com/v2/sports/soccer/leagues/fifa.world/seasons/2026/athletes/250465?lang=en&region=us"
    },
    {
      "$ref": "http://sports.core.api.espn.com/v2/sports/soccer/leagues/fifa.world/seasons/2026/athletes/287266?lang=en&region=us"
    },
    {
      "$ref": "http://sports.core.api.espn.com/v2/sports/soccer/leagues/fifa.world/seasons/2026/athletes/297370?lang=en&region=us"
    },
    {
      "$ref": "http://sports.core.api.espn.com/v2/sports/soccer/leagues/fifa.world/seasons/2026/athletes/297373?lang=en&region=us"
    },
    {
      "$ref": "http://sports.core.api.espn.com/v2/sports/soccer/leagues/fifa.world/seasons/2026/athletes/323702?lang=en&region=us"
    },
    {
      "$ref": "http://sports.core.api.espn.com/v2/sports/soccer/leagues/fifa.world/seasons/2026/athletes/214995?lang=en&region=us"
    },
    {
      "$ref": "http://sports.core.api.espn.com/v2/sports/soccer/leagues/fifa.world/seasons/2026/athletes/229018?lang=en&region=us"
    },
    {
      "$ref": "http://sports.core.api.espn.com/v2/sports/soccer/leagues/fifa.world/seasons/2026/athletes/265869?lang=en&region=us"
    },
    {
      "$ref": "http://sports.core.api.espn.com/v2/sports/soccer/leagues/fifa.world/seasons/2026/athletes/312146?lang=en&region=us"
    },
    {
      "$ref": "http://sports.core.api.espn.com/v2/sports/soccer/leagues/fifa.world/seasons/2026/athletes/362150?lang=en&region=us"
    }
  ]
}