{"count":26,"pageIndex":1,"pageSize":25,"pageCount":2,"items":[{"$ref":"http://sports.core.api.espn.com/v2/sports/soccer/leagues/fifa.world/seasons/2026/athletes/176948?lang=en&region=us"},{"$ref":"http://sports.core.api.espn.com/v2/sports/soccer/leagues/fifa.world/seasons/2026/athletes/196876?lang=en&region=us"},{"$ref":"http://sports.core.api.espn.com/v2/sports/soccer/leagues/fifa.world/seasons/2026/athletes/198983?lang=en&region=us"},{"$ref":"http://sports.core.api.espn.com/v2/sports/soccer/leagues/fifa.world/seasons/2026/athletes/125514?lang=en&region=us"},{"$ref":"http://sports.core.api.espn.com/v2/sports/soccer/leagues/fifa.world/seasons/2026/athletes/145405?lang=en&region=us"},{"$ref":"http://sports.core.api.espn.com/v2/sports/soccer/leagues/fifa.world/seasons/2026/athletes/159047?lang=en&region=us"},{"$ref":"http://sports.core.api.espn.com/v2/sports/soccer/leagues/fifa.world/seasons/2026/athletes/170369?lang=en&region=us"},{"$ref":"http://sports.core.api.espn.com/v2/sports/soccer/leagues/fifa.world/seasons/2026/athletes/186575?lang=en&region=us"},{"$ref":"http://sports.core.api.espn.com/v2/sports/soccer/leagues/fifa.world/seasons/2026/athletes/236322?lang=en&region=us"},{"$ref":"http://sports.core.api.espn.com/v2/sports/soccer/leagues/fifa.world/seasons/2026/athletes/258307?lang=en&region=us"},{"$ref":"http://sports.core.api.espn.com/v2/sports/soccer/leagues/fifa.world/seasons/2026/athletes/259835?lang=en&region=us"},{"$ref":"http://sports.core.api.espn.com/v2/sports/soccer/leagues/fifa.world/seasons/2026/athletes/332354?lang=en&region=us"},{"$ref":"http://sports.core.api.espn.com/v2/sports/soccer/leagues/fifa.world/seasons/2026/athletes/173666?lang=en&region=us"},{"$ref":"http://sports.core.api.espn.com/v2/sports/soccer/leagues/fifa.world/seasons/2026/athletes/176287?lang=en&region=us"},{"$ref":"http://sports.core.api.espn.com/v2/sports/soccer/leagues/fifa.world/seasons/2026/athletes/218522?lang=en&region=us"},{"$ref":"http://sports.core.api.espn.com/v2/sports/soccer/leagues/fifa.world/seasons/2026/athletes/234715?lang=en&region=us"},{"$ref":"http://sports.core.api.espn.com/v2/sports/soccer/leagues/fifa.world/seasons/2026/athletes/306764?lang=en&region=us"},{"$ref":"http://sports.core.api.espn.com/v2/sports/soccer/leagues/fifa.world/seasons/2026/athletes/132948?lang=en&region=us"},{"$ref":"http://sports.core.api.espn.com/v2/sports/soccer/leagues/fifa.world/seasons/2026/athletes/231050?lang=en&region=us"},{"$ref":"http://sports.core.api.espn.com/v2/sports/soccer/leagues/fifa.world/seasons/2026/athletes/252107?lang=en&region=us"},{"$ref":"http://sports.core.api.espn.com/v2/sports/soccer/leagues/fifa.world/seasons/2026/athletes/259902?lang=en&region=us"},{"$ref":"http://sports.core.api.espn.com/v2/sports/soccer/leagues/fifa.world/seasons/2026/athletes/269844?lang=en&region=us"},{"$ref":"http://sports.core.api.espn.com/v2/sports/soccer/leagues/fifa.world/seasons/2026/athletes/301894?lang=en&region=us"},{"$ref":"http://sports.core.api.espn.com/v2/sports/soccer/leagues/fifa.world/seasons/2026/athletes/304215?lang=en&region=us"},{"$ref":"http://sports.core.api.espn.com/v2/sports/soccer/leagues/fifa.world/seasons/2026/athletes/346612?lang=en&region=us"}]}